^C:\USERS\123DG\DESKTOP\POCPROJECTS\DECOMPRESS\X64\DEBUG\DECOMPRESS.OBJ
/OUT:"C:\USERS\123DG\DESKTOP\POCPROJECTS\X64\DEBUG\DECOMPRESS.EXE" /INCREMENTAL /ILK:"X64\DEBUG\DECOMPRESS.ILK" /NOLOGO KERNEL32.LIB USER32.LIB GDI32.LIB WINSPOOL.LIB COMDLG32.LIB ADVAPI32.LIB SHELL32.LIB OLE32.LIB OLEAUT32.LIB UUID.LIB ODBC32.LIB ODBCCP32.LIB /MANIFEST /MANIFESTUAC:"level='asInvoker' uiAccess='false'" /manifest:embed /DEBUG /PDB:"C:\USERS\123DG\DESKTOP\POCPROJECTS\X64\DEBUG\DECOMPRESS.PDB" /SUBSYSTEM:CONSOLE /TLBID:1 /DYNAMICBASE /NXCOMPAT /IMPLIB:"C:\USERS\123DG\DESKTOP\POCPROJECTS\X64\DEBUG\DECOMPRESS.LIB" /MACHINE:X64 X64\DEBUG\DECOMPRESS.OBJ
^C:\USERS\123DG\DESKTOP\COMP-DECOMP-POC\DECOMPRESS\X64\DEBUG\DECOMPRESS.OBJ
/OUT:"C:\USERS\123DG\DESKTOP\COMP-DECOMP-POC\X64\DEBUG\DECOMPRESS.EXE" /INCREMENTAL /ILK:"X64\DEBUG\DECOMPRESS.ILK" /NOLOGO KERNEL32.LIB USER32.LIB GDI32.LIB WINSPOOL.LIB COMDLG32.LIB ADVAPI32.LIB SHELL32.LIB OLE32.LIB OLEAUT32.LIB UUID.LIB ODBC32.LIB ODBCCP32.LIB /MANIFEST /MANIFESTUAC:"level='asInvoker' uiAccess='false'" /manifest:embed /DEBUG /PDB:"C:\USERS\123DG\DESKTOP\COMP-DECOMP-POC\X64\DEBUG\DECOMPRESS.PDB" /SUBSYSTEM:CONSOLE /TLBID:1 /DYNAMICBASE /NXCOMPAT /IMPLIB:"C:\USERS\123DG\DESKTOP\COMP-DECOMP-POC\X64\DEBUG\DECOMPRESS.LIB" /MACHINE:X64 X64\DEBUG\DECOMPRESS.OBJ
